Index,Atom,FG,FG_name
0,C,2,Carbonyl
1,O,2,Carbonyl
2,N,2,Carbonyl
4,C,2,Carbonyl
5,C,3,Carboxyl
6,O,3,Carboxyl
8,C,3,Carboxyl
9,N,3,Carboxyl
11,O,3,Carboxyl
12,C,2,Carbonyl
13,C,2,Carbonyl
14,C,2,Carbonyl
15,C,2,Carbonyl
16,C,2,Carbonyl
17,C,2,Carbonyl
18,C,2,Carbonyl
19,C,2,Carbonyl
20,C,2,Carbonyl
21,C,2,Carbonyl
22,O,2,Carbonyl
23,N,2,Carbonyl
24,C,2,Carbonyl
26,C,2,Carbonyl
27,C,2,Carbonyl
28,N,0,Amino
29,C,0,Amino
30,C,0,Amino
31,O,0,Amino
32,C,0,Amino
33,C,0,Amino
34,C,0,Amino
35,N,2,Carbonyl
36,C,2,Carbonyl
37,O,2,Carbonyl
39,O,2,Carbonyl
40,C,4,Methyl
41,C,2,Carbonyl
42,C,2,Carbonyl
43,C,2,Carbonyl
44,C,2,Carbonyl
45,C,2,Carbonyl
46,C,2,Carbonyl
47,C,2,Carbonyl