Index,Atom,FG,FG_name
0,C,4,Methyl
1,C,2,Carbonyl
2,C,2,Carbonyl
3,C,2,Carbonyl
4,C,2,Carbonyl
5,C,2,Carbonyl
6,C,2,Carbonyl
7,C,2,Carbonyl
8,C,2,Carbonyl
9,N,2,Carbonyl
10,C,2,Carbonyl
11,O,2,Carbonyl
12,C,2,Carbonyl
13,C,2,Carbonyl
14,C,2,Carbonyl
15,C,2,Carbonyl
16,C,2,Carbonyl
17,C,2,Carbonyl
18,C,2,Carbonyl
19,C,2,Carbonyl
20,C,2,Carbonyl
21,C,2,Carbonyl
22,C,2,Carbonyl
23,C,2,Carbonyl
24,C,2,Carbonyl
25,N,2,Carbonyl
26,C,2,Carbonyl
27,C,2,Carbonyl
28,O,2,Carbonyl
29,C,1,Amino_sidechain
30,C,1,Amino_sidechain
31,N,1,Amino_sidechain
32,C,1,Amino_sidechain
33,N,1,Amino_sidechain
34,C,1,Amino_sidechain