Index,Atom,FG,FG_name
0,C,4,Methyl
1,C,2,Carbonyl
2,O,2,Carbonyl
3,N,2,Carbonyl
4,C,2,Carbonyl
5,C,2,Carbonyl
6,O,2,Carbonyl
7,C,1,Amino_sidechain
8,C,1,Amino_sidechain
9,C,1,Amino_sidechain
10,N,1,Amino_sidechain
11,C,1,Amino_sidechain
12,N,1,Amino_sidechain
13,N,0,Amino
14,C,2,Carbonyl
15,O,2,Carbonyl
16,C,2,Carbonyl
17,C,1,Amino_sidechain
18,C,1,Amino_sidechain
19,C,1,Amino_sidechain
20,N,2,Carbonyl
21,C,2,Carbonyl
22,O,2,Carbonyl
23,C,2,Carbonyl
24,N,2,Carbonyl
25,C,2,Carbonyl
26,O,2,Carbonyl
27,C,2,Carbonyl
28,C,1,Amino_sidechain
29,C,1,Amino_sidechain
30,O,1,Amino_sidechain
31,C,0,Amino
32,C,0,Amino
33,C,0,Amino
34,C,0,Amino
35,C,0,Amino
36,C,0,Amino
37,C,0,Amino