Index,Atom,FG,FG_name
0,C,2,Carbonyl
1,O,2,Carbonyl
2,N,2,Carbonyl
3,C,4,Methyl
4,C,1,Amino_sidechain
5,C,1,Amino_sidechain
6,C,1,Amino_sidechain
7,N,1,Amino_sidechain
8,O,1,Amino_sidechain
9,N,2,Carbonyl
10,C,2,Carbonyl
11,O,2,Carbonyl
12,C,2,Carbonyl
13,N,2,Carbonyl
14,C,2,Carbonyl
15,O,2,Carbonyl
16,C,2,Carbonyl
17,N,2,Carbonyl
18,C,2,Carbonyl
19,O,2,Carbonyl
20,C,2,Carbonyl
21,C,1,Amino_sidechain
22,N,2,Carbonyl
23,C,2,Carbonyl
24,O,2,Carbonyl
25,C,2,Carbonyl
26,C,1,Amino_sidechain
27,O,1,Amino_sidechain
28,N,2,Carbonyl
29,C,2,Carbonyl
30,O,2,Carbonyl
31,C,1,Amino_sidechain
32,N,1,Amino_sidechain
33,C,1,Amino_sidechain
34,O,1,Amino_sidechain
35,C,1,Amino_sidechain
36,C,1,Amino_sidechain
37,C,1,Amino_sidechain
38,C,1,Amino_sidechain
39,C,1,Amino_sidechain
40,C,1,Amino_sidechain
41,C,1,Amino_sidechain
42,C,1,Amino_sidechain
43,C,1,Amino_sidechain
44,C,1,Amino_sidechain
45,O,1,Amino_sidechain
46,C,1,Amino_sidechain
47,O,1,Amino_sidechain
48,N,1,Amino_sidechain
49,C,1,Amino_sidechain
50,C,1,Amino_sidechain
51,O,1,Amino_sidechain
52,N,1,Amino_sidechain
53,C,2,Carbonyl
54,C,1,Amino_sidechain
55,C,1,Amino_sidechain
56,C,1,Amino_sidechain
57,C,1,Amino_sidechain
58,C,1,Amino_sidechain
59,C,1,Amino_sidechain
60,C,1,Amino_sidechain
61,C,2,Carbonyl
62,O,2,Carbonyl
63,N,2,Carbonyl
64,C,2,Carbonyl
65,C,2,Carbonyl
66,O,2,Carbonyl
67,N,2,Carbonyl
68,C,2,Carbonyl
69,C,1,Amino_sidechain
70,C,1,Amino_sidechain
71,C,1,Amino_sidechain
72,C,1,Amino_sidechain
73,N,1,Amino_sidechain
74,C,2,Carbonyl
75,O,2,Carbonyl
76,O,2,Carbonyl
77,C,2,Carbonyl
78,C,2,Carbonyl
79,C,2,Carbonyl
80,N,2,Carbonyl
81,C,2,Carbonyl
82,N,2,Carbonyl
83,N,2,Carbonyl