Index,Atom,FG,FG_name
0,C,4,Methyl
1,N,2,Carbonyl
2,C,2,Carbonyl
3,O,2,Carbonyl
4,C,2,Carbonyl
5,N,2,Carbonyl
6,C,2,Carbonyl
7,O,2,Carbonyl
8,O,2,Carbonyl
9,C,2,Carbonyl
10,C,1,Amino_sidechain
11,C,1,Amino_sidechain
12,C,1,Amino_sidechain
13,C,1,Amino_sidechain
14,C,1,Amino_sidechain
15,C,1,Amino_sidechain
16,C,1,Amino_sidechain
17,C,1,Amino_sidechain
18,C,1,Amino_sidechain
19,C,1,Amino_sidechain
20,C,3,Carboxyl
21,C,3,Carboxyl
22,C,3,Carboxyl
23,C,3,Carboxyl
24,N,3,Carboxyl
25,C,3,Carboxyl
26,O,3,Carboxyl
27,C,3,Carboxyl
28,O,7,Hydroxyl
29,C,3,Carboxyl
30,O,3,Carboxyl
31,N,3,Carboxyl
32,C,3,Carboxyl
33,C,3,Carboxyl
34,C,3,Carboxyl
35,C,3,Carboxyl
36,C,3,Carboxyl
37,C,3,Carboxyl
38,C,3,Carboxyl