Index,Atom,FG,FG_name
0,O,2,Carbonyl
1,C,2,Carbonyl
2,N,2,Carbonyl
3,C,2,Carbonyl
4,C,2,Carbonyl
5,C,2,Carbonyl
6,C,2,Carbonyl
7,C,2,Carbonyl
8,C,2,Carbonyl
9,C,4,Methyl
10,C,2,Carbonyl
11,C,2,Carbonyl
12,C,2,Carbonyl
13,C,2,Carbonyl
14,C,2,Carbonyl
15,C,2,Carbonyl
16,C,2,Carbonyl
17,O,2,Carbonyl
18,C,2,Carbonyl
19,C,0,Amino
20,C,0,Amino
21,C,0,Amino
22,C,0,Amino
23,N,0,Amino
24,C,0,Amino
25,C,0,Amino
26,N,0,Amino
27,O,0,Amino
29,C,0,Amino
30,C,0,Amino
31,C,0,Amino
32,C,0,Amino