Index,Atom,FG,FG_name
0,C,4,Methyl
1,C,1,Amino_sidechain
2,C,1,Amino_sidechain
3,C,1,Amino_sidechain
4,C,1,Amino_sidechain
5,C,2,Carbonyl
6,N,2,Carbonyl
7,O,2,Carbonyl
8,C,1,Amino_sidechain
9,C,1,Amino_sidechain
10,C,1,Amino_sidechain
11,C,1,Amino_sidechain
12,N,1,Amino_sidechain
13,O,1,Amino_sidechain
14,C,1,Amino_sidechain
15,C,1,Amino_sidechain
16,C,1,Amino_sidechain
17,O,1,Amino_sidechain
18,N,2,Carbonyl
19,C,2,Carbonyl
20,O,2,Carbonyl
21,O,2,Carbonyl
22,C,2,Carbonyl
23,C,2,Carbonyl
24,C,2,Carbonyl
25,C,2,Carbonyl
26,C,5,Halide
27,C,2,Carbonyl
28,F,5,Halide
29,F,5,Halide
30,C,2,Carbonyl